{
    "key": "group_64a6dc2abf990",
    "title": "Settings",
    "fields": [
        {
            "key": "field_64a6d9e4a81da",
            "label": "Background Color",
            "name": "background_color",
            "aria-label": "",
            "type": "select",
            "instructions": "",
            "required": 0,
            "conditional_logic": 0,
            "wrapper": {
                "width": "",
                "class": "",
                "id": ""
            },
            "choices": {
                "dark-bg": "Dark",
                "white-bg": "White",
                "light-bg": "Light",
                "custom-bg": "Custom"
            },
            "default_value": false,
            "return_format": "value",
            "multiple": 0,
            "allow_null": 1,
            "ui": 0,
            "ajax": 0,
            "placeholder": ""
        },
        {
            "key": "field_64a6d9e4a81db",
            "label": "Select Custom Color",
            "name": "select_custom_color",
            "aria-label": "",
            "type": "color_picker",
            "instructions": "",
            "required": 0,
            "conditional_logic": [
                [
                    {
                        "field": "field_64a6d9e4a81da",
                        "operator": "==",
                        "value": "custom-bg"
                    }
                ]
            ],
            "wrapper": {
                "width": "",
                "class": "",
                "id": ""
            },
            "default_value": "",
            "enable_opacity": 1,
            "return_format": "string"
        }
    ],
    "location": [
        [
            {
                "param": "block",
                "operator": "==",
                "value": ""
            }
        ]
    ],
    "menu_order": 0,
    "position": "normal",
    "style": "default",
    "label_placement": "top",
    "instruction_placement": "label",
    "hide_on_screen": "",
    "active": true,
    "description": "",
    "show_in_rest": 0,
    "modified": 1688660394
}