<svg width="10" height="16" viewBox="0 0 10 16" fill="none" xmlns="http://www.w3.org/2000/svg">
<path d="M9.2546 8.79208L2.01324 15.6716C1.5526 16.1095 0.805754 16.1095 0.345339 15.6716C-0.115113 15.2342 -0.115113 14.5246 0.345339 14.0872L6.75283 7.99989L0.345525 1.91276C-0.114927 1.47513 -0.114927 0.765684 0.345525 0.328226C0.805977 -0.109409 1.55279 -0.109409 2.01342 0.328226L9.25479 7.20786C9.48502 7.4267 9.6 7.7132 9.6 7.99985C9.6 8.28664 9.48479 8.57335 9.2546 8.79208Z" fill="#00BF7B"/>
</svg>
